<?xml version="1.0" encoding="utf-8"?>
<!-- Generator: Adobe Illustrator 14.0.0, SVG Export Plug-In . SVG Version: 6.00 Build 43363)  -->
<!DOCTYPE svg PUBLIC "-//W3C//DTD SVG 1.1//EN" "http://www.w3.org/Graphics/SVG/1.1/DTD/svg11.dtd">
<svg version="1.1" id="Calque_2" xmlns="http://www.w3.org/2000/svg" xmlns:xlink="http://www.w3.org/1999/xlink" x="0px" y="0px"
	 width="576px" height="576px" viewBox="0 0 576 576" enable-background="new 0 0 576 576" xml:space="preserve">
<g>
	<path d="M88.338,403.737c-0.887,9.263-15.623,27.062-35.33,22.274c-19.708-4.787-30.541-24.38-27.015-44.35
		c22.375-126.756,195.072-221.751,252.392-217.199C298.092,169.251,113.609,177.551,88.338,403.737z"/>
	<path d="M177.368,331.509c-2.294,7.402-17.329,19.415-32.585,12.169c-15.257-7.244-20.767-25.059-14.505-40.744
		c39.744-99.558,196.669-147.724,242.635-134.289C388.169,175.891,236.337,151.367,177.368,331.509z"/>
	<path d="M277.992,289.854c-3.749,5.914-19.699,12.842-31.294,2.92c-11.596-9.923-12.196-26.76-3.029-38.962
		c58.177-77.448,206.418-82.396,243.335-59.824C498.601,203.909,371.967,146.664,277.992,289.854z"/>
	<path d="M385.443,268.762c-3.616,3.647-16.136,6.104-22.882-2.828c-6.747-8.934-4.53-21.092,3.954-28.394
		c53.859-46.346,160.857-26.584,183.76-4.607C557.025,241.865,475.292,180.938,385.443,268.762z"/>
</g>
</svg>
