<?xml version="1.0" encoding="utf-8"?>
<!-- Generator: Adobe Illustrator 14.0.0, SVG Export Plug-In . SVG Version: 6.00 Build 43363)  -->
<!DOCTYPE svg PUBLIC "-//W3C//DTD SVG 1.1//EN" "http://www.w3.org/Graphics/SVG/1.1/DTD/svg11.dtd">
<svg version="1.1" id="Calque_2" xmlns="http://www.w3.org/2000/svg" xmlns:xlink="http://www.w3.org/1999/xlink" x="0px" y="0px"
	 width="576px" height="576px" viewBox="0 0 576 576" enable-background="new 0 0 576 576" xml:space="preserve">
<g id="Calque_3_1_">
	<path d="M493.961,438.122c5.227-4.576,10.455-28.388,8.891-40.137c11.243,3.118,25.163-20.538,36.879-7.552
		c7.396,10.004-13.487,15.895-11.828,20.102c1.658,4.208,24.28,1.955,23.237,17.59c-1.042,15.633-17.048,9.674-20.639,11.236
		c-3.592,1.562,15.504,14.999,1.429,22.494C513.473,471.905,503.944,446.828,493.961,438.122z"/>
	<path d="M413.449,316.602c1.206,0,2.404,0.027,3.598,0.08"/>
	<path d="M333.5,396.551"/>
	<path d="M417.047,316.682l-3.598-0.08c-81.941-7.422-158.157-61.3-174.695-135.175l-0.348-2.624l-0.498-2.128
		c-8.836-34.54-40.166-60.073-77.459-60.073c-44.155,0-79.949,35.794-79.949,79.949c0,5.522,0.56,10.915,1.626,16.122
		C85.5,265.5,164.601,440.012,390.602,474.012l3.934,0.238c6.063,1.471,12.397,2.25,18.915,2.25
		c44.153,0,79.949-35.795,79.949-79.949C493.398,353.604,459.532,318.562,417.047,316.682z M469.456,425.823l-0.23-2.39
		c-5.984-37.332-21.79-42.535-39.505-53.021l-0.714-0.528c-8.29-6.435-10.12-18.321-4-26.974
		c6.293-8.896,18.606-11.006,27.503-4.713c1.313,0.93,2.479,1.988,3.491,3.147l0.758,0.608
		C505.341,378.521,469.975,436.606,469.456,425.823z"/>
	<path d="M105.698,123.756c3.729-5.862,26.468-14.652,38.318-14.893c-4.793-10.638,16.471-27.994,1.854-37.598
		c-11.013-5.79-13.658,15.748-18.068,14.749c-4.412-1-5.626-23.702-20.92-20.292c-15.292,3.408-6.968,18.321-7.966,22.107
		c-0.997,3.787-17.183-13.042-22.45,2.009C69.34,109.609,95.575,115.213,105.698,123.756z"/>
</g>
</svg>
