<?xml version="1.0" encoding="utf-8"?>
<!-- Generator: Adobe Illustrator 14.0.0, SVG Export Plug-In . SVG Version: 6.00 Build 43363)  -->
<!DOCTYPE svg PUBLIC "-//W3C//DTD SVG 1.1//EN" "http://www.w3.org/Graphics/SVG/1.1/DTD/svg11.dtd">
<svg version="1.1" id="Calque_1" xmlns="http://www.w3.org/2000/svg" xmlns:xlink="http://www.w3.org/1999/xlink" x="0px" y="0px"
	 width="576px" height="576px" viewBox="0 0 576 576" enable-background="new 0 0 576 576" xml:space="preserve">
<path fill="#020202" d="M405.977,85.055C255.5-101.5-17.5,146.5,104.106,338.412c6.48,54.46-26.7,51.364-53.606,28.881
	c14.333,62.843,72.766,57.33,95.918,52.92c0,8.82-13.23,29.769-87.098,4.41c85.996,89.304,116.036,33.555,119.071,38.588
	c35.644,59.115,76.979,67.641,133.953,67.641c49.637,0,94.94-32.557,129.356-80.386C568.678,377.216,544.423,51.977,405.977,85.055z
	 M289.744,522.746c-131.377,0.021-124.583-177.503-130.096-187.426c-0.021-94.815,47.408-147.736,91.508-180.811
	c2.677-4.917,6.615,22.05-5.513,57.331c39.69-27.563,21.894-58.696,32.326-66.15c8.467,4.41-1.958,99.758-28.116,118.14
	c97.22-20.017,144.627-99.397,144.627-99.397s14.333,116.333,71.663,145.531C448.505,433.443,405.507,520.541,289.744,522.746z"/>
</svg>
