<?xml version="1.0" encoding="utf-8"?>
<!-- Generator: Adobe Illustrator 14.0.0, SVG Export Plug-In . SVG Version: 6.00 Build 43363)  -->
<!DOCTYPE svg PUBLIC "-//W3C//DTD SVG 1.1//EN" "http://www.w3.org/Graphics/SVG/1.1/DTD/svg11.dtd">
<svg version="1.1" id="Calque_2" xmlns="http://www.w3.org/2000/svg" xmlns:xlink="http://www.w3.org/1999/xlink" x="0px" y="0px"
	 width="576px" height="576px" viewBox="0 0 576 576" enable-background="new 0 0 576 576" xml:space="preserve">
<g>
	<path d="M296.473,318.568c29.021,11.176,48.938,36.445,50.146,76.942c1.195,40.048-32.197,66.951-71.236,66.951
		c-39.04,0-70.139-26.075-70.139-66.951c0-39.192,19.766-62.52,47.328-74.772C247.275,117.029,419.201,71.385,427.385,71.385
		C434.529,71.385,251.097,150.417,296.473,318.568z"/>
	<path d="M531.115,327.191H357.408h-24.162v11.004h2.918c13.506,16.225,22.816,37.43,22.816,61.137
		c0,52.355-41.423,75.583-82.636,75.583c-41.217,0-83.574-23.228-83.574-75.583c0-23.715,9.828-44.912,23.687-61.137v-11.004
		h-17.994H44.885v11.004h148.499c-6.232,15.391-9.748,32.719-9.748,51.063c0,63.709,42.149,94.726,94.231,94.726
		c52.079,0,94.375-31.017,94.375-94.726c0-18.344-3.521-35.674-9.756-51.063h168.629V327.191z"/>
</g>
</svg>
