<?xml version="1.0" encoding="utf-8"?>
<!-- Generator: Adobe Illustrator 14.0.0, SVG Export Plug-In . SVG Version: 6.00 Build 43363)  -->
<!DOCTYPE svg PUBLIC "-//W3C//DTD SVG 1.1//EN" "http://www.w3.org/Graphics/SVG/1.1/DTD/svg11.dtd">
<svg version="1.1" id="Calque_2" xmlns="http://www.w3.org/2000/svg" xmlns:xlink="http://www.w3.org/1999/xlink" x="0px" y="0px"
	 width="576px" height="576px" viewBox="0 0 576 576" enable-background="new 0 0 576 576" xml:space="preserve">
<g id="Calque_3_1_">
	<path d="M107.585,193.172c0,0-3.981,18.762,0,35.977c-8.902,1.113-23.758,12.168-27.816,16.69
		C81.252,231.001,107.585,193.172,107.585,193.172z"/>
	<path d="M73.093,276.992c15.949-12.98,37.088-24.849,37.088-24.849s5.024,25.138,8.531,30.042
		c-11.126,5.563-43.023,30.042-43.023,30.042S73.093,300.729,73.093,276.992z"/>
	<path d="M81.623,335.222c20.77-16.319,44.136-31.155,44.136-31.155s7.417,14.094,17.803,28.559
		c-16.318,7.789-47.66,33.38-47.66,33.38S90.524,357.104,81.623,335.222z"/>
	<path d="M109.068,384.549c8.971-11.386,31.344-26.127,47.103-33.751c16.353,43.947,114.976,87.53,114.976,87.53
		S177.312,461.694,109.068,384.549z"/>
	<path d="M154.146,155.572c-13.3,4.256-21.812,13.832-21.812,13.832S88.711,343.985,304.168,429.019
		c20.748-10.107,40.965-25.005,40.965-25.005S146.698,335.036,154.146,155.572z"/>
	<path d="M222.242,132.695c0,14.364,4.255,27.664,4.255,27.664s45.219-18.914,65.435-19.151
		C281.825,136.419,249.374,128.972,222.242,132.695z"/>
	<path d="M232.438,185.894c9.488,19.152,9.488,19.152,9.488,19.152s43.093-24.472,122.357-14.896
		c-10.105-13.3-26.598-26.601-26.598-26.601S300.895,160.359,232.438,185.894z"/>
	<path d="M257.087,228.985c0,0,71.975-28.196,129.008-5.851c9.576,14.364,9.576,29.009,9.576,29.009s-50.541-24.221-118.103,2.91
		C265.333,243.349,257.087,228.985,257.087,228.985z"/>
	<path d="M400.992,279.524c0,7.111,0,27.132-5.32,53.199c-36.176-7.98-98.488-57.63-98.488-57.63S346.375,257.673,400.992,279.524z"
		/>
	<path d="M278.083,474.994c167.643-8.062,96.739-108.989,96.739-108.989s7.188-7.196,9.883-15.207
		c-174.276-58.503-184.158-213.876-184.158-213.876s-23.356,0-25.153,9.103C160.724,319.035,364.283,384.86,364.283,384.86
		s24.5,61.786-45.479,66.496c-9.43,2.194-28.529,1.32-50.915,4.43c-23.243,3.229-61.615,13.285-67.58,13.991
		c-19.414,4.338-43.888,4.451-92.724,8.51c-48.836,4.06-58.084,50.535-19.328,66.477c37.123,20.574,121.299,6.666,133.985,4.491
		c12.687-2.176,13.516-22.545,0-20.661c-13.517,1.884-81.885,13.482-119.612-1.797c-37.727-15.279,6.438-28.747,6.438-28.747
		s132.426-14.521,148.02-20.661C264.805,475.705,271.673,475.354,278.083,474.994z"/>
	<g>
		<circle cx="530.396" cy="182.929" r="15.503"/>
		<path d="M391.082,218.149c1.932,2.899,3.508,5.807,4.799,8.627l136.078-38.294l-3.125-11.105l-140.807,39.625
			C389.049,217.37,390.068,217.751,391.082,218.149z"/>
	</g>
	<g>
		<circle cx="428.148" cy="46.482" r="15.503"/>
		<path d="M346.688,158.213c0,0,2.789,2.484,6.945,6.528l79.264-114.985l-9.498-6.547l-79.186,114.873
			C345.852,158.134,346.688,158.213,346.688,158.213z"/>
	</g>
</g>
</svg>
