<?xml version="1.0" encoding="utf-8"?>
<!-- Generator: Adobe Illustrator 14.0.0, SVG Export Plug-In . SVG Version: 6.00 Build 43363)  -->
<!DOCTYPE svg PUBLIC "-//W3C//DTD SVG 1.1//EN" "http://www.w3.org/Graphics/SVG/1.1/DTD/svg11.dtd">
<svg version="1.1" id="Calque_2_2_" xmlns="http://www.w3.org/2000/svg" xmlns:xlink="http://www.w3.org/1999/xlink" x="0px"
	 y="0px" width="576px" height="576px" viewBox="0 0 576 576" enable-background="new 0 0 576 576" xml:space="preserve">
<g id="Calque_2_3_">
	<path d="M356.441,170.703c8.296,2.019,66.486,73.735,61.136,102.489c24.231-27.986,5.519-61.086-3.119-75.669
		c-20.337-11.106-39.455-13.321-38.847-14.684c0.234-0.527,19.356,1.889,36.438,10.583c-1.613-2.855-1.992-4.068,0.018-3.126
		C483.557,223.821,531.5,281.356,531.5,327c0,68.76-108.795,84.5-243,84.5s-243-15.74-243-84.5
		c0-39.746,11.255-71.465,67.855-105.539c5.673-3.416,81.206,17.336,93.914,66.801c0.137,0.16,0.856,0.785,1.021-1.153
		c1.757-52.153-33.021-80.864-40.374-87.9c-21.033,2.731-41.146,15.709-43.796,16.755c0.993-1.577,15.885-12.999,41.786-18.74
		c-0.964-2.858-3.126-3.508-2.104-3.949c17.73-7.638,46.461-20.609,66.489-24.765c8.125-1.686,61.844,36.57,75.748,90.26
		c15.457-55.456-6.457-79.431-17.344-88.412c-18.459-5.131-48.722-1.864-48.771-2.201c0.048-0.578,15.551-3.1,44.971-0.923
		c-1.57-1.198-2.63-1.91-2.895-2.21C305.582,165.023,334.881,165.457,356.441,170.703z"/>
</g>
</svg>
